{
  "project_info": {
    "project_number": "138670823296",
    "firebase_url": "https://fir-289511.firebaseio.com",
    "project_id": "firebase-289511",
    "storage_bucket": "firebase-289511.appspot.com"
  },
  "client": [
    {
      "client_info": {
        "mobilesdk_app_id": "1:138670823296:android:67a297a02cc2fbc6b29365",
        "android_client_info": {
          "package_name": "com.example.aplikasifirebasestorage"
        }
      },
      "oauth_client": [
        {
          "client_id": "138670823296-iu6lrutqf2qjnq5vh553telse83dh619.apps.googleusercontent.com",
          "client_type": 3
        }
      ],
      "api_key": [
        {
          "current_key": "AIzaSyCRnLTmShdjDGiohANZGNIb_HQ0dR1b5yA"
        }
      ],
      "services": {
        "appinvite_service": {
          "other_platform_oauth_client": [
            {
              "client_id": "138670823296-iu6lrutqf2qjnq5vh553telse83dh619.apps.googleusercontent.com",
              "client_type": 3
            }
          ]
        }
      }
    },
    {
      "client_info": {
        "mobilesdk_app_id": "1:138670823296:android:924a93f851ec2630b29365",
        "android_client_info": {
          "package_name": "com.example.firebase"
        }
      },
      "oauth_client": [
        {
          "client_id": "138670823296-iu6lrutqf2qjnq5vh553telse83dh619.apps.googleusercontent.com",
          "client_type": 3
        }
      ],
      "api_key": [
        {
          "current_key": "AIzaSyCRnLTmShdjDGiohANZGNIb_HQ0dR1b5yA"
        }
      ],
      "services": {
        "appinvite_service": {
          "other_platform_oauth_client": [
            {
              "client_id": "138670823296-iu6lrutqf2qjnq5vh553telse83dh619.apps.googleusercontent.com",
              "client_type": 3
            }
          ]
        }
      }
    },
    {
      "client_info": {
        "mobilesdk_app_id": "1:138670823296:android:8de4f995290eb8aeb29365",
        "android_client_info": {
          "package_name": "com.example.firebaseauthentication"
        }
      },
      "oauth_client": [
        {
          "client_id": "138670823296-iu6lrutqf2qjnq5vh553telse83dh619.apps.googleusercontent.com",
          "client_type": 3
        }
      ],
      "api_key": [
        {
          "current_key": "AIzaSyCRnLTmShdjDGiohANZGNIb_HQ0dR1b5yA"
        }
      ],
      "services": {
        "appinvite_service": {
          "other_platform_oauth_client": [
            {
              "client_id": "138670823296-iu6lrutqf2qjnq5vh553telse83dh619.apps.googleusercontent.com",
              "client_type": 3
            }
          ]
        }
      }
    }
  ],
  "configuration_version": "1"
}